[
  {
    "uuid": "dc8ee9da-4c55-3ddb-86fd-6228a68eac93",
    "name": "GengszterLajos",
    "level": 4,
    "bypassesPlayerLimit": false
  },
  {
    "uuid": "94e90a21-5336-31c1-a65e-b537a70c7b72",
    "name": "Snakehog",
    "level": 4,
    "bypassesPlayerLimit": false
  }
]