{
    "type": "minecraft:crafting_shaped",
    "pattern": [
      "xxx",
      "xzx",
      "xxx"
    ],
    "key": {
      "x": {
        "tag": "minecraft:wool_carpets"
      },
      "z": {
        "item": "minecraft:green_dye"
      }
    },
    "result": {
      "item": "minecraft:green_carpet",
      "count": 8
    }
  }
  