{
    "type": "minecraft:crafting_shaped",
    "pattern": [
        "###",
        "#S#",
        "###"
    ],
    "key": {
        "#": {
            "item":"minecraft:bone_meal"
        },
        "S":{
            "item": "minecraft:allium"
        }
    },
    "result": {
        "item": "minecraft:allium",
        "count": 2
    }
}